A look at my Google searches in last 5 years
…
Any trends exist in my Goole searches?

First thing I would like to check is the most active day which I have done maximum number of searches.

# I need to first group all the searches based on day then count the number of searches in each day and sort it in descending order to find the most active day, with dplyr verbs it is easy!
active_days <- time_data %>% 
  group_by(day) %>% 
  summarise(searches_in_day = n()) %>% 
  arrange(desc(searches_in_day)) %>% 
  print()

## # A tibble: 1,666 x 2
##    day        searches_in_day
##    <date>               <int>
##  1 2017-07-31             277
##  2 2015-04-18             184
##  3 2017-08-21             142
##  4 2017-08-10             132
##  5 2015-11-27             112
##  6 2015-11-29              95
##  7 2017-01-31              88
##  8 2015-12-19              87
##  9 2015-12-11              85
## 10 2017-08-17              84
## # ... with 1,656 more rows
…
